-------------------------------------------------------------------------------
Test set: railroad.service.PassengerServiceTest
-------------------------------------------------------------------------------
Tests run: 3, Failures: 0, Errors: 0, Skipped: 0, Time elapsed: 0.013 s - in railroad.service.PassengerServiceTest
