-------------------------------------------------------------------------------
Test set: railroad.service.TicketServiceTest
-------------------------------------------------------------------------------
Tests run: 2, Failures: 0, Errors: 0, Skipped: 0, Time elapsed: 0.013 s - in railroad.service.TicketServiceTest
