C:\Users\siver\Desktop\prog\repositories\railroad_attempts\bitb_repo\railroad\src\test\java\railroad\dao\TrainDAOTest.java
C:\Users\siver\Desktop\prog\repositories\railroad_attempts\bitb_repo\railroad\src\test\java\railroad\service\PassengerServiceTest.java
C:\Users\siver\Desktop\prog\repositories\railroad_attempts\bitb_repo\railroad\src\test\java\railroad\dao\StationDAOTest.java
C:\Users\siver\Desktop\prog\repositories\railroad_attempts\bitb_repo\railroad\src\test\java\railroad\dao\StationTrainDAOTest.java
C:\Users\siver\Desktop\prog\repositories\railroad_attempts\bitb_repo\railroad\src\test\java\railroad\dao\TicketDAOTest.java
C:\Users\siver\Desktop\prog\repositories\railroad_attempts\bitb_repo\railroad\src\test\java\railroad\dao\PassengerUserDAOTest.java
C:\Users\siver\Desktop\prog\repositories\railroad_attempts\bitb_repo\railroad\src\test\java\railroad\service\StationServiceTest.java
C:\Users\siver\Desktop\prog\repositories\railroad_attempts\bitb_repo\railroad\src\test\java\railroad\dao\UserDAOTest.java
C:\Users\siver\Desktop\prog\repositories\railroad_attempts\bitb_repo\railroad\src\test\java\railroad\service\TrainServiceTest.java
C:\Users\siver\Desktop\prog\repositories\railroad_attempts\bitb_repo\railroad\src\test\java\railroad\dao\PassengerDAOTest.java
C:\Users\siver\Desktop\prog\repositories\railroad_attempts\bitb_repo\railroad\src\test\java\railroad\service\TicketServiceTest.java
